{
  "sizes": [
    {
      "slug": "512mb",
      "memory": 512,
      "vcpus": 1,
      "disk": 20,
      "transfer": 1,
      "price_monthly": 5,
      "price_hourly": 0.00744,
      "regions": [
        "ams2",
        "ams3",
        "blr1",
        "fra1",
        "lon1",
        "nyc1",
        "nyc2",
        "nyc3",
        "sfo1",
        "sfo2",
        "sgp1",
        "tor1"
      ],
      "available": true
    },
    {
      "slug": "s-1vcpu-1gb",
      "memory": 1024,
      "vcpus": 1,
      "disk": 25,
      "transfer": 1,
      "price_monthly": 5,
      "price_hourly": 0.00744,
      "regions": [
        "ams2",
        "ams3",
        "blr1",
        "fra1",
        "lon1",
        "nyc1",
        "nyc2",
        "nyc3",
        "sfo1",
        "sfo2",
        "sgp1",
        "tor1"
      ],
      "available": true
    },
    {
      "slug": "1gb",
      "memory": 1024,
      "vcpus": 1,
      "disk": 30,
      "transfer": 2,
      "price_monthly": 10,
      "price_hourly": 0.01488,
      "regions": [
        "ams2",
        "ams3",
        "blr1",
        "fra1",
        "lon1",
        "nyc1",
        "nyc2",
        "nyc3",
        "sfo1",
        "sfo2",
        "sgp1",
        "tor1"
      ],
      "available": true
    },
    {
      "slug": "s-3vcpu-1gb",
      "memory": 1024,
      "vcpus": 3,
      "disk": 60,
      "transfer": 3,
      "price_monthly": 15,
      "price_hourly": 0.02232,
      "regions": [
        "ams2",
        "ams3",
        "blr1",
        "fra1",
        "lon1",
        "nyc1",
        "nyc2",
        "nyc3",
        "sfo1",
        "sfo2",
        "sgp1",
        "tor1"
      ],
      "available": true
    },
    {
      "slug": "s-1vcpu-2gb",
      "memory": 2048,
      "vcpus": 1,
      "disk": 50,
      "transfer": 2,
      "price_monthly": 10,
      "price_hourly": 0.01488,
      "regions": [
        "ams2",
        "ams3",
        "blr1",
        "fra1",
        "lon1",
        "nyc1",
        "nyc2",
        "nyc3",
        "sfo1",
        "sfo2",
        "sgp1",
        "tor1"
      ],
      "available": true
    },
    {
      "slug": "s-2vcpu-2gb",
      "memory": 2048,
      "vcpus": 2,
      "disk": 60,
      "transfer": 3,
      "price_monthly": 15,
      "price_hourly": 0.02232,
      "regions": [
        "ams2",
        "ams3",
        "blr1",
        "fra1",
        "lon1",
        "nyc1",
        "nyc2",
        "nyc3",
        "sfo1",
        "sfo2",
        "sgp1",
        "tor1"
      ],
      "available": true
    },
    {
      "slug": "2gb",
      "memory": 2048,
      "vcpus": 2,
      "disk": 40,
      "transfer": 3,
      "price_monthly": 20,
      "price_hourly": 0.02976,
      "regions": [
        "ams2",
        "ams3",
        "blr1",
        "fra1",
        "lon1",
        "nyc1",
        "nyc2",
        "nyc3",
        "sfo1",
        "sfo2",
        "sgp1",
        "tor1"
      ],
      "available": true
    },
    {
      "slug": "s-1vcpu-3gb",
      "memory": 3072,
      "vcpus": 1,
      "disk": 60,
      "transfer": 3,
      "price_monthly": 15,
      "price_hourly": 0.02232,
      "regions": [
        "ams2",
        "ams3",
        "blr1",
        "fra1",
        "lon1",
        "nyc1",
        "nyc2",
        "nyc3",
        "sfo1",
        "sfo2",
        "sgp1",
        "tor1"
      ],
      "available": true
    },
    {
      "slug": "s-2vcpu-4gb",
      "memory": 4096,
      "vcpus": 2,
      "disk": 80,
      "transfer": 4,
      "price_monthly": 20,
      "price_hourly": 0.02976,
      "regions": [
        "ams2",
        "ams3",
        "blr1",
        "fra1",
        "lon1",
        "nyc1",
        "nyc2",
        "nyc3",
        "sfo1",
        "sfo2",
        "sgp1",
        "tor1"
      ],
      "available": true
    },
    {
      "slug": "4gb",
      "memory": 4096,
      "vcpus": 2,
      "disk": 60,
      "transfer": 4,
      "price_monthly": 40,
      "price_hourly": 0.05952,
      "regions": [
        "ams2",
        "ams3",
        "blr1",
        "fra1",
        "lon1",
        "nyc1",
        "nyc2",
        "nyc3",
        "sfo1",
        "sfo2",
        "sgp1",
        "tor1"
      ],
      "available": true
    },
    {
      "slug": "c-2",
      "memory": 4096,
      "vcpus": 2,
      "disk": 25,
      "transfer": 5,
      "price_monthly": 40,
      "price_hourly": 0.06,
      "regions": [
        "ams3",
        "blr1",
        "fra1",
        "lon1",
        "nyc1",
        "nyc3",
        "sfo2",
        "sgp1",
        "tor1"
      ],
      "available": true
    },
    {
      "slug": "c-4",
      "memory": 8192,
      "vcpus": 4,
      "disk": 50,
      "transfer": 5,
      "price_monthly": 80,
      "price_hourly": 0.119,
      "regions": [
        "ams3",
        "blr1",
        "fra1",
        "lon1",
        "nyc1",
        "nyc3",
        "sfo2",
        "sgp1",
        "tor1"
      ],
      "available": true
    },
    {
      "slug": "8gb",
      "memory": 8192,
      "vcpus": 4,
      "disk": 80,
      "transfer": 5,
      "price_monthly": 80,
      "price_hourly": 0.11905,
      "regions": [
        "ams2",
        "ams3",
        "blr1",
        "fra1",
        "lon1",
        "nyc1",
        "nyc2",
        "nyc3",
        "sfo1",
        "sfo2",
        "sgp1",
        "tor1"
      ],
      "available": true
    },
    {
      "slug": "s-4vcpu-8gb",
      "memory": 8192,
      "vcpus": 4,
      "disk": 160,
      "transfer": 5,
      "price_monthly": 40,
      "price_hourly": 0.05952,
      "regions": [
        "ams2",
        "ams3",
        "blr1",
        "fra1",
        "lon1",
        "nyc1",
        "nyc2",
        "nyc3",
        "sfo1",
        "sfo2",
        "sgp1",
        "tor1"
      ],
      "available": true
    },
    {
      "slug": "c-8",
      "memory": 16384,
      "vcpus": 8,
      "disk": 100,
      "transfer": 5,
      "price_monthly": 160,
      "price_hourly": 0.238,
      "regions": [
        "ams3",
        "blr1",
        "fra1",
        "lon1",
        "nyc1",
        "nyc3",
        "sfo2",
        "sgp1",
        "tor1"
      ],
      "available": true
    },
    {
      "slug": "s-6vcpu-16gb",
      "memory": 16384,
      "vcpus": 6,
      "disk": 320,
      "transfer": 6,
      "price_monthly": 80,
      "price_hourly": 0.11905,
      "regions": [
        "ams2",
        "ams3",
        "blr1",
        "fra1",
        "lon1",
        "nyc1",
        "nyc2",
        "nyc3",
        "sfo1",
        "sfo2",
        "sgp1",
        "tor1"
      ],
      "available": true
    },
    {
      "slug": "16gb",
      "memory": 16384,
      "vcpus": 8,
      "disk": 160,
      "transfer": 6,
      "price_monthly": 160,
      "price_hourly": 0.2381,
      "regions": [
        "ams2",
        "ams3",
        "blr1",
        "fra1",
        "lon1",
        "nyc1",
        "nyc2",
        "nyc3",
        "sfo1",
        "sfo2",
        "sgp1",
        "tor1"
      ],
      "available": true
    },
    {
      "slug": "s-8vcpu-32gb",
      "memory": 32768,
      "vcpus": 8,
      "disk": 640,
      "transfer": 7,
      "price_monthly": 160,
      "price_hourly": 0.2381,
      "regions": [
        "ams2",
        "ams3",
        "blr1",
        "fra1",
        "lon1",
        "nyc1",
        "nyc2",
        "nyc3",
        "sfo1",
        "sfo2",
        "sgp1",
        "tor1"
      ],
      "available": true
    },
    {
      "slug": "32gb",
      "memory": 32768,
      "vcpus": 12,
      "disk": 320,
      "transfer": 7,
      "price_monthly": 320,
      "price_hourly": 0.47619,
      "regions": [
        "ams2",
        "ams3",
        "blr1",
        "fra1",
        "lon1",
        "nyc1",
        "nyc2",
        "nyc3",
        "sfo1",
        "sfo2",
        "sgp1",
        "tor1"
      ],
      "available": true
    },
    {
      "slug": "c-16",
      "memory": 32768,
      "vcpus": 16,
      "disk": 200,
      "transfer": 5,
      "price_monthly": 320,
      "price_hourly": 0.476,
      "regions": [
        "ams3",
        "blr1",
        "fra1",
        "lon1",
        "nyc1",
        "nyc3",
        "sfo2",
        "sgp1",
        "tor1"
      ],
      "available": true
    }
  ],
  "links": {
    "pages": {
      "last": "https:\/\/api.digitalocean.com\/v2\/sizes?page=2",
      "next": "https:\/\/api.digitalocean.com\/v2\/sizes?page=2"
    }
  },
  "meta": {
    "total": 29
  }
}